{
	"extends": ["tslint:latest", "tslint-config-prettier"],
	"rulesDirectory": ["node_modules/codelyzer"],
	"rules": {
		"arrow-return-shorthand": true,
		"callable-types": true,
		"class-name": true,
		"comment-format": [true, "check-space"],
		"curly": true,
		"eofline": true,
		"forin": true,
		"import-blacklist": [false, "rxjs/Rx"],
		"import-spacing": true,
		"interface-over-type-literal": true,
		"label-position": true,
		"max-line-length": [true, 180],
		"member-access": false,
		"member-ordering": [
			true,
			{
				"order": ["static-field", "instance-field", "static-method", "instance-method"]
			}
		],
		"no-submodule-imports": false,
		"no-arg": true,
		"no-bitwise": true,
		"no-console": [true, "debug", "info", "time", "timeEnd", "trace"],
		"no-construct": true,
		"no-debugger": true,
		"no-duplicate-super": true,
		"no-empty": false,
		"no-empty-interface": true,
		"no-eval": true,
		"no-inferrable-types": [false],
		"no-misused-new": true,
		"no-non-null-assertion": true,
		"no-shadowed-variable": true,
		"no-string-literal": false,
		"no-string-throw": true,
		"no-switch-case-fall-through": true,
		"no-trailing-whitespace": false,
		"no-unnecessary-initializer": true,
		"no-unused-expression": false,
		"no-use-before-declare": false,
		"no-var-keyword": true,
		"object-literal-sort-keys": false,
		"one-line": [true, "check-open-brace", "check-catch", "check-else", "check-whitespace"],
		"prefer-const": true,
		"quotemark": [true, "single"],
		"radix": false,
		"semicolon": [true, "always"],
		"triple-equals": [false, "allow-null-check"],
		"typedef-whitespace": [
			true,
			{
				"call-signature": "nospace",
				"index-signature": "nospace",
				"parameter": "nospace",
				"property-declaration": "nospace",
				"variable-declaration": "nospace"
			}
		],
		"unified-signatures": true,
		"variable-name": false,
		"whitespace": [true, "check-branch", "check-decl", "check-operator", "check-separator", "check-type"],
		"no-output-on-prefix": false,
		"use-input-property-decorator": true,
		"use-output-property-decorator": true,
		"use-host-property-decorator": true,
		"no-input-rename": false,
		"no-output-rename": false,
		"use-life-cycle-interface": true,
		"use-pipe-transform-interface": true,
		"component-class-suffix": false,
		"directive-class-suffix": false,
		"interface-name": false,
		"ordered-imports": false
	}
}
